^C:\USERS\ANTOI\ONEDRIVE\DOCUMENTS\CNAM\USRS5M-IA\USRS5M-HALITE-ANTOINE\RELEASE\ASTAR.OBJ|C:\USERS\ANTOI\ONEDRIVE\DOCUMENTS\CNAM\USRS5M-IA\USRS5M-HALITE-ANTOINE\RELEASE\BLACKBOARD.OBJ|C:\USERS\ANTOI\ONEDRIVE\DOCUMENTS\CNAM\USRS5M-IA\USRS5M-HALITE-ANTOINE\RELEASE\COMMAND.OBJ|C:\USERS\ANTOI\ONEDRIVE\DOCUMENTS\CNAM\USRS5M-IA\USRS5M-HALITE-ANTOINE\RELEASE\CONSTANTS.OBJ|C:\USERS\ANTOI\ONEDRIVE\DOCUMENTS\CNAM\USRS5M-IA\USRS5M-HALITE-ANTOINE\RELEASE\DROPOFF.OBJ|C:\USERS\ANTOI\ONEDRIVE\DOCUMENTS\CNAM\USRS5M-IA\USRS5M-HALITE-ANTOINE\RELEASE\GAME.OBJ|C:\USERS\ANTOI\ONEDRIVE\DOCUMENTS\CNAM\USRS5M-IA\USRS5M-HALITE-ANTOINE\RELEASE\GAME_MAP.OBJ|C:\USERS\ANTOI\ONEDRIVE\DOCUMENTS\CNAM\USRS5M-IA\USRS5M-HALITE-ANTOINE\RELEASE\LOG.OBJ|C:\USERS\ANTOI\ONEDRIVE\DOCUMENTS\CNAM\USRS5M-IA\USRS5M-HALITE-ANTOINE\RELEASE\MASTERMIND.OBJ|C:\USERS\ANTOI\ONEDRIVE\DOCUMENTS\CNAM\USRS5M-IA\USRS5M-HALITE-ANTOINE\RELEASE\PLAYER.OBJ|C:\USERS\ANTOI\ONEDRIVE\DOCUMENTS\CNAM\USRS5M-IA\USRS5M-HALITE-ANTOINE\RELEASE\SHIP.OBJ|C:\USERS\ANTOI\ONEDRIVE\DOCUMENTS\CNAM\USRS5M-IA\USRS5M-HALITE-ANTOINE\RELEASE\USRS5M-HALITE-ANTOINE.OBJ
C:\USERS\ANTOI\ONEDRIVE\DOCUMENTS\CNAM\USRS5M-IA\USRS5M-HALITE-ANTOINE\RELEASE\USRS5M-HALITE-ANTOINE.EXE
C:\USERS\ANTOI\ONEDRIVE\DOCUMENTS\CNAM\USRS5M-IA\USRS5M-HALITE-ANTOINE\RELEASE\USRS5M-HALITE-ANTOINE.PDB
