^C:\USERS\ANTOI\ONEDRIVE\DOCUMENTS\CNAM\USRS5M-IA\USRS5M-HALITE-ANTOINE\DEBUG\ASTAR.OBJ|C:\USERS\ANTOI\ONEDRIVE\DOCUMENTS\CNAM\USRS5M-IA\USRS5M-HALITE-ANTOINE\DEBUG\BLACKBOARD.OBJ|C:\USERS\ANTOI\ONEDRIVE\DOCUMENTS\CNAM\USRS5M-IA\USRS5M-HALITE-ANTOINE\DEBUG\COMMAND.OBJ|C:\USERS\ANTOI\ONEDRIVE\DOCUMENTS\CNAM\USRS5M-IA\USRS5M-HALITE-ANTOINE\DEBUG\CONSTANTS.OBJ|C:\USERS\ANTOI\ONEDRIVE\DOCUMENTS\CNAM\USRS5M-IA\USRS5M-HALITE-ANTOINE\DEBUG\DROPOFF.OBJ|C:\USERS\ANTOI\ONEDRIVE\DOCUMENTS\CNAM\USRS5M-IA\USRS5M-HALITE-ANTOINE\DEBUG\GAME.OBJ|C:\USERS\ANTOI\ONEDRIVE\DOCUMENTS\CNAM\USRS5M-IA\USRS5M-HALITE-ANTOINE\DEBUG\GAME_MAP.OBJ|C:\USERS\ANTOI\ONEDRIVE\DOCUMENTS\CNAM\USRS5M-IA\USRS5M-HALITE-ANTOINE\DEBUG\LOG.OBJ|C:\USERS\ANTOI\ONEDRIVE\DOCUMENTS\CNAM\USRS5M-IA\USRS5M-HALITE-ANTOINE\DEBUG\MASTERMIND.OBJ|C:\USERS\ANTOI\ONEDRIVE\DOCUMENTS\CNAM\USRS5M-IA\USRS5M-HALITE-ANTOINE\DEBUG\PLAYER.OBJ|C:\USERS\ANTOI\ONEDRIVE\DOCUMENTS\CNAM\USRS5M-IA\USRS5M-HALITE-ANTOINE\DEBUG\SHIP.OBJ|C:\USERS\ANTOI\ONEDRIVE\DOCUMENTS\CNAM\USRS5M-IA\USRS5M-HALITE-ANTOINE\DEBUG\USRS5M-HALITE-ANTOINE.OBJ
C:\PROGRAM FILES (X86)\WINDOWS KITS\10\LIB\10.0.19041.0\UM\X86\KERNEL32.LIB
C:\PROGRAM FILES (X86)\WINDOWS KITS\10\LIB\10.0.19041.0\UM\X86\USER32.LIB
C:\PROGRAM FILES (X86)\WINDOWS KITS\10\LIB\10.0.19041.0\UM\X86\GDI32.LIB
C:\PROGRAM FILES (X86)\WINDOWS KITS\10\LIB\10.0.19041.0\UM\X86\WINSPOOL.LIB
C:\PROGRAM FILES (X86)\WINDOWS KITS\10\LIB\10.0.19041.0\UM\X86\COMDLG32.LIB
C:\PROGRAM FILES (X86)\WINDOWS KITS\10\LIB\10.0.19041.0\UM\X86\ADVAPI32.LIB
C:\PROGRAM FILES (X86)\WINDOWS KITS\10\LIB\10.0.19041.0\UM\X86\SHELL32.LIB
C:\PROGRAM FILES (X86)\WINDOWS KITS\10\LIB\10.0.19041.0\UM\X86\OLE32.LIB
C:\PROGRAM FILES (X86)\WINDOWS KITS\10\LIB\10.0.19041.0\UM\X86\OLEAUT32.LIB
C:\PROGRAM FILES (X86)\WINDOWS KITS\10\LIB\10.0.19041.0\UM\X86\UUID.LIB
C:\PROGRAM FILES (X86)\WINDOWS KITS\10\LIB\10.0.19041.0\UM\X86\ODBC32.LIB
C:\PROGRAM FILES (X86)\WINDOWS KITS\10\LIB\10.0.19041.0\UM\X86\ODBCCP32.LIB
C:\USERS\ANTOI\ONEDRIVE\DOCUMENTS\CNAM\USRS5M-IA\USRS5M-HALITE-ANTOINE\DEBUG\COMMAND.OBJ
C:\USERS\ANTOI\ONEDRIVE\DOCUMENTS\CNAM\USRS5M-IA\USRS5M-HALITE-ANTOINE\DEBUG\CONSTANTS.OBJ
C:\USERS\ANTOI\ONEDRIVE\DOCUMENTS\CNAM\USRS5M-IA\USRS5M-HALITE-ANTOINE\DEBUG\DROPOFF.OBJ
C:\USERS\ANTOI\ONEDRIVE\DOCUMENTS\CNAM\USRS5M-IA\USRS5M-HALITE-ANTOINE\DEBUG\GAME.OBJ
C:\USERS\ANTOI\ONEDRIVE\DOCUMENTS\CNAM\USRS5M-IA\USRS5M-HALITE-ANTOINE\DEBUG\GAME_MAP.OBJ
C:\USERS\ANTOI\ONEDRIVE\DOCUMENTS\CNAM\USRS5M-IA\USRS5M-HALITE-ANTOINE\DEBUG\LOG.OBJ
C:\USERS\ANTOI\ONEDRIVE\DOCUMENTS\CNAM\USRS5M-IA\USRS5M-HALITE-ANTOINE\DEBUG\PLAYER.OBJ
C:\USERS\ANTOI\ONEDRIVE\DOCUMENTS\CNAM\USRS5M-IA\USRS5M-HALITE-ANTOINE\DEBUG\SHIP.OBJ
C:\USERS\ANTOI\ONEDRIVE\DOCUMENTS\CNAM\USRS5M-IA\USRS5M-HALITE-ANTOINE\DEBUG\ASTAR.OBJ
C:\USERS\ANTOI\ONEDRIVE\DOCUMENTS\CNAM\USRS5M-IA\USRS5M-HALITE-ANTOINE\DEBUG\BLACKBOARD.OBJ
C:\USERS\ANTOI\ONEDRIVE\DOCUMENTS\CNAM\USRS5M-IA\USRS5M-HALITE-ANTOINE\DEBUG\MASTERMIND.OBJ
C:\USERS\ANTOI\ONEDRIVE\DOCUMENTS\CNAM\USRS5M-IA\USRS5M-HALITE-ANTOINE\DEBUG\USRS5M-HALITE-ANTOINE.OBJ
C:\WINDOWS\SYSTEM32\TZRES.DLL
C:\WINDOWS\GLOBALIZATION\SORTING\SORTDEFAULT.NLS
C:\PROGRAM FILES (X86)\MICROSOFT VISUAL STUDIO\2019\COMMUNITY\VC\TOOLS\MSVC\14.29.30133\LIB\X86\MSVCPRTD.LIB
C:\PROGRAM FILES (X86)\MICROSOFT VISUAL STUDIO\2019\COMMUNITY\VC\TOOLS\MSVC\14.29.30133\LIB\X86\MSVCRTD.LIB
C:\PROGRAM FILES (X86)\MICROSOFT VISUAL STUDIO\2019\COMMUNITY\VC\TOOLS\MSVC\14.29.30133\LIB\X86\OLDNAMES.LIB
C:\PROGRAM FILES (X86)\MICROSOFT VISUAL STUDIO\2019\COMMUNITY\VC\TOOLS\MSVC\14.29.30133\LIB\X86\VCRUNTIMED.LIB
C:\PROGRAM FILES (X86)\WINDOWS KITS\10\LIB\10.0.19041.0\UCRT\X86\UCRTD.LIB
